{
    "type": "minecraft:crafting_shaped",
    "pattern": [
        "x#"
    ],
    "key": {
        "x": {
            "item": "minecraft:iron_ingot"
        },
        "#": {
            "item": "minecraft:gunpowder"
        }
    },
    "result": {
        "item": "someguns:_762bullet"
    }
}